{
    "GridData": [
        { "Type": "Folder", "Name": "Sub Folder", "Description": "Sub Folder Description", "ModifiedDate": "1/21/2014 2:56 PM" },
        { "Type": "Folder", "Name": "Test 2", "Description": "", "ModifiedDate": "1/21/2014 2:54 PM" },
        { "Type": "Folder", "Name": "Test", "Description": "", "ModifiedDate": "1/20/2014 1:17 PM" },
        { "Type": "Folder", "Name": "New Folder", "Description": "", "ModifiedDate": "1/21/2014 2:53 PM" },
        { "Type": "Document", "Name": "Send Documents Usability.docx", "Description": "Document Description", "ModifiedDate": "1/21/2014 3:55 PM" },
        { "Type": "Document", "Name": "Star Image.png", "Description": "", "ModifiedDate": "1/21/2014 3:45 PM" },
        { "Type": "Document", "Name": "Coming Soon Text.docx", "Description": "", "ModifiedDate": "1/21/2014 3:15 PM" },
        { "Type": "Document", "Name": "Internationalization_Notes.pdf", "Description": "", "ModifiedDate": "1/21/2014 2:58 PM" },
        { "Type": "Document", "Name": "Test Document.docx", "Description": "This is a test document", "ModifiedDate": "1/21/2014 2:55 PM" },
        { "Type": "Document", "Name": "Spreadsheet.xlsx", "Description": "", "ModifiedDate": "1/21/2014 2:35 PM" },
        { "Type": "Document", "Name": "Moon Image.png", "Description": "", "ModifiedDate": "1/21/2014 2:27 PM" },
        { "Type": "Document", "Name": "What is this.pdf", "Description": "", "ModifiedDate": "3/21/2015 9:54 AM" },
        { "Type": "Document", "Name": "Json Generator.exe", "Description": "", "ModifiedDate": "8/21/2015 7:23 PM" },
        { "Type": "Document", "Name": "Code Exercise.zip", "Description": "", "ModifiedDate": "7/22/2015 4:13 PM" },
        { "Type": "Document", "Name": "Marketting Banner.jpeg", "Description": "For Home Page", "ModifiedDate": "4/5/2014 2:19 PM" },
        { "Type": "Document", "Name": "Presentation Deck.ppt", "Description": "", "ModifiedDate": "1/21/2014 1:37 PM" }
    ],
    "ActionButtons": [{ "Name": "Upload", "ImageName": "upload" },
        { "Name": "Create Folder", "ImageName": "create_folder" },
        { "Name": "Share", "ImageName": "share" },
        { "Name": "Cut", "ImageName": "cut" },
        { "Name": "Manage Attributes", "ImageName": "tag" },
        { "Name": "Copy", "ImageName": "copy" },
        { "Name": "Paste", "ImageName": "paste" },
        { "Name": "Search", "ImageName": "search" },
        { "Name": "Folder Settings", "ImageName": "folder_settings" },
        { "Name": "Send Email", "ImageName": "send_email" }
    ]
}
